{
    "response": {
        "status": "ok",
        "userTier": "developer",
        "total": 6302,
        "startIndex": 1,
        "pageSize": 10,
        "currentPage": 1,
        "pages": 631,
        "orderBy": "relevance",
        "results": [
            {
                "id": "commentisfree/2025/jan/27/trump-vengeance-critics",
                "type": "article",
                "sectionId": "commentisfree",
                "sectionName": "Opinion",
                "webPublicationDate": "2025-01-27T11:00:42Z",
                "webTitle": "Here’s how Trump’s vengeance machine works | Robert Reich",
                "webUrl": "https://www.theguardian.com/commentisfree/2025/jan/27/trump-vengeance-critics",
                "apiUrl": "https://content.guardianapis.com/commentisfree/2025/jan/27/trump-vengeance-critics",
                "isHosted": false,
                "pillarId": "pillar/opinion",
                "pillarName": "Opinion"
            },
            {
                "id": "technology/2024/oct/30/tell-us-do-you-use-a-fax-machine",
                "type": "article",
                "sectionId": "technology",
                "sectionName": "Technology",
                "webPublicationDate": "2024-10-30T16:28:31Z",
                "webTitle": "Tell us: do you use a fax machine?",
                "webUrl": "https://www.theguardian.com/technology/2024/oct/30/tell-us-do-you-use-a-fax-machine",
                "apiUrl": "https://content.guardianapis.com/technology/2024/oct/30/tell-us-do-you-use-a-fax-machine",
                "isHosted": false,
                "pillarId": "pillar/news",
                "pillarName": "News"
            },
            {
                "id": "science/2024/oct/08/nobel-prize-physics-john-hopfield-geoffrey-hinton-machine-learning",
                "type": "article",
                "sectionId": "science",
                "sectionName": "Science",
                "webPublicationDate": "2024-10-08T12:53:51Z",
                "webTitle": "Machine learning pioneers win Nobel prize in physics",
                "webUrl": "https://www.theguardian.com/science/2024/oct/08/nobel-prize-physics-john-hopfield-geoffrey-hinton-machine-learning",
                "apiUrl": "https://content.guardianapis.com/science/2024/oct/08/nobel-prize-physics-john-hopfield-geoffrey-hinton-machine-learning",
                "isHosted": false,
                "pillarId": "pillar/news",
                "pillarName": "News"
            },
            {
                "id": "thefilter/2024/nov/21/coffee-machine-types",
                "type": "article",
                "sectionId": "thefilter",
                "sectionName": "The Filter",
                "webPublicationDate": "2024-11-21T18:00:01Z",
                "webTitle": "How to choose the right type of coffee machine for you",
                "webUrl": "https://www.theguardian.com/thefilter/2024/nov/21/coffee-machine-types",
                "apiUrl": "https://content.guardianapis.com/thefilter/2024/nov/21/coffee-machine-types",
                "isHosted": false,
                "pillarId": "pillar/lifestyle",
                "pillarName": "Lifestyle"
            },
            {
                "id": "film/2024/dec/31/beezel-review-horror-aaron-fradkin",
                "type": "article",
                "sectionId": "film",
                "sectionName": "Film",
                "webPublicationDate": "2024-12-31T11:00:43Z",
                "webTitle": "Beezel review – impish jump-scare machine follows single house’s horrific history",
                "webUrl": "https://www.theguardian.com/film/2024/dec/31/beezel-review-horror-aaron-fradkin",
                "apiUrl": "https://content.guardianapis.com/film/2024/dec/31/beezel-review-horror-aaron-fradkin",
                "isHosted": false,
                "pillarId": "pillar/arts",
                "pillarName": "Arts"
            },
            {
                "id": "football/2025/jan/10/graham-potter-human-heart-west-ham-gormless-machine",
                "type": "article",
                "sectionId": "football",
                "sectionName": "Football",
                "webPublicationDate": "2025-01-10T08:00:36Z",
                "webTitle": "Graham Potter’s task is to put human heart back in West Ham’s gormless machine | Jonathan Liew",
                "webUrl": "https://www.theguardian.com/football/2025/jan/10/graham-potter-human-heart-west-ham-gormless-machine",
                "apiUrl": "https://content.guardianapis.com/football/2025/jan/10/graham-potter-human-heart-west-ham-gormless-machine",
                "isHosted": false,
                "pillarId": "pillar/sport",
                "pillarName": "Sport"
            },
            {
                "id": "books/2024/dec/14/kate-mckinnon-watching-succession-made-me-return-to-king-lear",
                "type": "article",
                "sectionId": "books",
                "sectionName": "Books",
                "webPublicationDate": "2024-12-14T10:00:14Z",
                "webTitle": "Kate McKinnon: ‘Watching Succession made me return to King Lear’",
                "webUrl": "https://www.theguardian.com/books/2024/dec/14/kate-mckinnon-watching-succession-made-me-return-to-king-lear",
                "apiUrl": "https://content.guardianapis.com/books/2024/dec/14/kate-mckinnon-watching-succession-made-me-return-to-king-lear",
                "isHosted": false,
                "pillarId": "pillar/arts",
                "pillarName": "Arts"
            },
            {
                "id": "us-news/2024/dec/04/fani-willis-georgia-trump-trial",
                "type": "article",
                "sectionId": "us-news",
                "sectionName": "US news",
                "webPublicationDate": "2024-12-04T16:02:15Z",
                "webTitle": "Georgia’s payback machine: Fani Willis resists subpoenas by state lawmakers over Trump prosecution",
                "webUrl": "https://www.theguardian.com/us-news/2024/dec/04/fani-willis-georgia-trump-trial",
                "apiUrl": "https://content.guardianapis.com/us-news/2024/dec/04/fani-willis-georgia-trump-trial",
                "isHosted": false,
                "pillarId": "pillar/news",
                "pillarName": "News"
            },
            {
                "id": "tv-and-radio/2024/oct/19/tv-tonight-an-exhilarating-night-of-music-with-florence-the-machine",
                "type": "article",
                "sectionId": "tv-and-radio",
                "sectionName": "Television & radio",
                "webPublicationDate": "2024-10-19T05:00:08Z",
                "webTitle": "TV tonight: an exhilarating night of music with Florence + the Machine ",
                "webUrl": "https://www.theguardian.com/tv-and-radio/2024/oct/19/tv-tonight-an-exhilarating-night-of-music-with-florence-the-machine",
                "apiUrl": "https://content.guardianapis.com/tv-and-radio/2024/oct/19/tv-tonight-an-exhilarating-night-of-music-with-florence-the-machine",
                "isHosted": false,
                "pillarId": "pillar/arts",
                "pillarName": "Arts"
            },
            {
                "id": "sport/2024/oct/09/joe-root-overhauls-alastair-cook-to-become-england-record-test-run-scorer",
                "type": "article",
                "sectionId": "sport",
                "sectionName": "Sport",
                "webPublicationDate": "2024-10-09T15:42:09Z",
                "webTitle": "‘Run-scoring machine’: Alastair Cook praises Joe Root on passing landmark",
                "webUrl": "https://www.theguardian.com/sport/2024/oct/09/joe-root-overhauls-alastair-cook-to-become-england-record-test-run-scorer",
                "apiUrl": "https://content.guardianapis.com/sport/2024/oct/09/joe-root-overhauls-alastair-cook-to-become-england-record-test-run-scorer",
                "isHosted": false,
                "pillarId": "pillar/sport",
                "pillarName": "Sport"
            }
        ]
    }
}